<?xml version="1.0" encoding="utf-8"?>
<!-- Generator: Adobe Illustrator 16.0.0, SVG Export Plug-In . SVG Version: 6.00 Build 0)  -->
<!DOCTYPE svg PUBLIC "-//W3C//DTD SVG 1.1//EN" "http://www.w3.org/Graphics/SVG/1.1/DTD/svg11.dtd">
<svg version="1.1" id="Layer_1"
	 xmlns="http://www.w3.org/2000/svg" x="0px" y="0px" width="24px" height="24px"
	 viewBox="0 0 24 24" enable-background="new 0 0 24 24">
<path id="path0_stroke" d="M11,9v11h2V9H11z"/>
<path id="path0_stroke_1_" d="M15,9v11h2V9H15z"/>
<path id="path0_stroke_2_" d="M7,9v11h2V9H7z"/>
<path id="path1_stroke" d="M5,8h14V6H5V8z"/>
<path id="path2_stroke" d="M8,20h8v-2H8V20z"/>
<path id="path3_stroke" d="M9,6h6V4H9V6z"/>
</svg>
