<svg width="23" height="23" viewBox="0 0 23 23" version="1.1" xmlns="http://www.w3.org/2000/svg" xmlns:xlink="http://www.w3.org/1999/xlink" xmlns:figma="http://www.figma.com/figma/ns">
<title>OSXunmaximize</title>
<desc>Created using Figma</desc>
<g id="Canvas" transform="translate(578 957)" figma:type="canvas">
<g id="OSXunmaximize" style="mix-blend-mode:normal;" figma:type="instance">
<g id="Group" style="mix-blend-mode:normal;" figma:type="frame">
<g id="Vector 11" style="mix-blend-mode:normal;" figma:type="vector">
<use xlink:href="#path0_fill" transform="translate(-572 -945)" fill="#FFFFFF" style="mix-blend-mode:normal;"/>
</g>
<g id="Vector 11" style="mix-blend-mode:normal;" figma:type="vector">
<use xlink:href="#path0_fill" transform="matrix(-1 1.22465e-16 -1.22465e-16 -1 -561 -946)" fill="#FFFFFF" style="mix-blend-mode:normal;"/>
</g>
</g>
</g>
</g>
<defs>
<path id="path0_fill" d="M 5 0L 0 0L 5 5L 5 0Z"/>
</defs>
</svg>
