<svg width="23" height="23" viewBox="0 0 23 23" version="1.1" xmlns="http://www.w3.org/2000/svg" xmlns:xlink="http://www.w3.org/1999/xlink" xmlns:figma="http://www.figma.com/figma/ns">
<title>WINmaximize</title>
<desc>Created using Figma</desc>
<g id="Canvas" transform="translate(668 957)" figma:type="canvas">
<g id="WINmaximize" style="mix-blend-mode:normal;" figma:type="instance">
<g id="Group" style="mix-blend-mode:normal;" figma:type="frame">
<g id="Rectangle 12" style="mix-blend-mode:normal;" figma:type="rounded-rectangle">
<mask id="mask0_outline_ins">
<use xlink:href="#path0_fill" fill="white" transform="translate(-660 -948)"/>
</mask>
<g mask="url(#mask0_outline_ins)">
<use xlink:href="#path1_stroke_2x" transform="translate(-660 -948)" fill="#FFFFFF" style="mix-blend-mode:normal;"/>
</g>
</g>
<g id="Rectangle 12" style="mix-blend-mode:normal;" figma:type="vector">
<use xlink:href="#path2_stroke" transform="translate(-660 -948.5)" fill="#FFFFFF" style="mix-blend-mode:normal;"/>
</g>
</g>
</g>
</g>
<defs>
<path id="path0_fill" d="M 0 0L 7 0L 7 6L 0 6L 0 0Z"/>
<path id="path1_stroke_2x" d="M 0 0L 0 -1L -1 -1L -1 0L 0 0ZM 7 0L 8 0L 8 -1L 7 -1L 7 0ZM 7 6L 7 7L 8 7L 8 6L 7 6ZM 0 6L -1 6L -1 7L 0 7L 0 6ZM 0 1L 7 1L 7 -1L 0 -1L 0 1ZM 6 0L 6 6L 8 6L 8 0L 6 0ZM 7 5L 0 5L 0 7L 7 7L 7 5ZM 1 6L 1 0L -1 0L -1 6L 1 6Z"/>
<path id="path2_stroke" d="M 0 0.5L 7 0.5L 7 -0.5L 0 -0.5L 0 0.5Z"/>
</defs>
</svg>
